test1.bam
1       4000500 .       N       <INV>   .       PASS    SVTYPE=INV;SVLEN=300;END=4000800        GT:GQ:L:IE:SE:DE        1/0:19:5.71626e-09,0.986776,0.0132242:1,3:2,4:0,0

test2.bam
1       2000500 .       N       <INV>   .       PASS    SVTYPE=INV;SVLEN=800;END=2001300        GT:GQ:L:IE:SE:DE        1/0:113:9.22498e-17,1,5.47217e-12:6,10:6,5:0,0

test3.bam
1       4000700 .       N       <DUP:TANDEM>    .       PASS    SVTYPE=DUP:TANDEM;SVLEN=300;END=4001000 GT:GQ:L:IE:SE:DE        1/.:23:0.00558655,0.395353,0.59906:0,0:0,0:4,5

test4.bam
1       28017400        .       N       <DUP:TANDEM>    .       PASS    SVTYPE=DUP:TANDEM;SVLEN=800;END=28018200        GT:GQ:L:IE:SE:DE        1/1:21:4.9147e-24,0.00730355,0.992696:0,0:0,0:5,16
